(kicad_sch
	(version 20231120)
	(generator "eeschema")
	(generator_version "8.0")
	(uuid "f5e4a79b-09c8-4b73-8999-dee726215526")
	(paper "A4")
	(lib_symbols
		(symbol "Mechanical:MountingHole_Pad"
			(pin_numbers hide)
			(pin_names
				(offset 1.016) hide)
			(exclude_from_sim no)
			(in_bom yes)
			(on_board yes)
			(property "Reference" "H"
				(at 0 6.35 0)
				(effects
					(font
						(size 1.27 1.27)
					)
				)
			)
			(property "Value" "MountingHole_Pad"
				(at 0 4.445 0)
				(effects
					(font
						(size 1.27 1.27)
					)
				)
			)
			(property "Footprint" ""
				(at 0 0 0)
				(effects
					(font
						(size 1.27 1.27)
					)
					(hide yes)
				)
			)
			(property "Datasheet" "~"
				(at 0 0 0)
				(effects
					(font
						(size 1.27 1.27)
					)
					(hide yes)
				)
			)
			(property "Description" "Mounting Hole with connection"
				(at 0 0 0)
				(effects
					(font
						(size 1.27 1.27)
					)
					(hide yes)
				)
			)
			(property "ki_keywords" "mounting hole"
				(at 0 0 0)
				(effects
					(font
						(size 1.27 1.27)
					)
					(hide yes)
				)
			)
			(property "ki_fp_filters" "MountingHole*Pad*"
				(at 0 0 0)
				(effects
					(font
						(size 1.27 1.27)
					)
					(hide yes)
				)
			)
			(symbol "MountingHole_Pad_0_1"
				(circle
					(center 0 1.27)
					(radius 1.27)
					(stroke
						(width 1.27)
						(type default)
					)
					(fill
						(type none)
					)
				)
			)
			(symbol "MountingHole_Pad_1_1"
				(pin input line
					(at 0 -2.54 90)
					(length 2.54)
					(name "1"
						(effects
							(font
								(size 1.27 1.27)
							)
						)
					)
					(number "1"
						(effects
							(font
								(size 1.27 1.27)
							)
						)
					)
				)
			)
		)
		(symbol "power:GND"
			(power)
			(pin_names
				(offset 0)
			)
			(exclude_from_sim no)
			(in_bom yes)
			(on_board yes)
			(property "Reference" "#PWR"
				(at 0 -6.35 0)
				(effects
					(font
						(size 1.27 1.27)
					)
					(hide yes)
				)
			)
			(property "Value" "GND"
				(at 0 -3.81 0)
				(effects
					(font
						(size 1.27 1.27)
					)
				)
			)
			(property "Footprint" ""
				(at 0 0 0)
				(effects
					(font
						(size 1.27 1.27)
					)
					(hide yes)
				)
			)
			(property "Datasheet" ""
				(at 0 0 0)
				(effects
					(font
						(size 1.27 1.27)
					)
					(hide yes)
				)
			)
			(property "Description" "Power symbol creates a global label with name \"GND\" , ground"
				(at 0 0 0)
				(effects
					(font
						(size 1.27 1.27)
					)
					(hide yes)
				)
			)
			(property "ki_keywords" "power-flag"
				(at 0 0 0)
				(effects
					(font
						(size 1.27 1.27)
					)
					(hide yes)
				)
			)
			(symbol "GND_0_1"
				(polyline
					(pts
						(xy 0 0) (xy 0 -1.27) (xy 1.27 -1.27) (xy 0 -2.54) (xy -1.27 -1.27) (xy 0 -1.27)
					)
					(stroke
						(width 0)
						(type default)
					)
					(fill
						(type none)
					)
				)
			)
			(symbol "GND_1_1"
				(pin power_in line
					(at 0 0 270)
					(length 0) hide
					(name "GND"
						(effects
							(font
								(size 1.27 1.27)
							)
						)
					)
					(number "1"
						(effects
							(font
								(size 1.27 1.27)
							)
						)
					)
				)
			)
		)
	)
	(junction
		(at 166.37 82.55)
		(diameter 0)
		(color 0 0 0 0)
		(uuid "602bf7e6-f88f-48b9-aa46-aeb1516b1884")
	)
	(junction
		(at 168.91 80.01)
		(diameter 0)
		(color 0 0 0 0)
		(uuid "9885b288-efec-4b3d-8caf-e2f75d012f20")
	)
	(wire
		(pts
			(xy 101.6 105.41) (xy 85.09 105.41)
		)
		(stroke
			(width 0)
			(type default)
		)
		(uuid "022d6d47-ddd1-46dd-a1a5-414b946b449f")
	)
	(wire
		(pts
			(xy 85.09 107.95) (xy 99.06 107.95)
		)
		(stroke
			(width 0)
			(type default)
		)
		(uuid "026470fd-7901-4893-a4b6-2e302908b76e")
	)
	(wire
		(pts
			(xy 109.22 118.11) (xy 109.22 95.25)
		)
		(stroke
			(width 0)
			(type default)
		)
		(uuid "0446bf88-8361-4c9b-83a3-eb8cf25a778e")
	)
	(wire
		(pts
			(xy 118.11 82.55) (xy 85.09 82.55)
		)
		(stroke
			(width 0)
			(type default)
		)
		(uuid "0af98ae7-292e-4478-bff6-808ba745923b")
	)
	(wire
		(pts
			(xy 175.26 105.41) (xy 175.26 125.73)
		)
		(stroke
			(width 0)
			(type default)
		)
		(uuid "11457b84-8320-4ec8-9a99-c8faebf1360e")
	)
	(wire
		(pts
			(xy 85.09 85.09) (xy 118.11 85.09)
		)
		(stroke
			(width 0)
			(type default)
		)
		(uuid "128e22f1-5b0f-4671-851f-c6de322ccf9f")
	)
	(wire
		(pts
			(xy 91.44 66.04) (xy 91.44 43.18)
		)
		(stroke
			(width 0)
			(type default)
		)
		(uuid "14c5edb5-f479-4e2c-ae90-66c40a55850c")
	)
	(wire
		(pts
			(xy 85.09 72.39) (xy 99.06 72.39)
		)
		(stroke
			(width 0)
			(type default)
		)
		(uuid "19dc67a2-556c-4ddf-9ee1-48bffbe584c9")
	)
	(wire
		(pts
			(xy 177.8 53.34) (xy 177.8 72.39)
		)
		(stroke
			(width 0)
			(type default)
		)
		(uuid "1a07bf99-d27e-40ee-86b5-cc30d2cc66fb")
	)
	(wire
		(pts
			(xy 166.37 82.55) (xy 191.77 82.55)
		)
		(stroke
			(width 0)
			(type default)
		)
		(uuid "2dd97a5e-318e-422b-8759-682cb1aede3a")
	)
	(wire
		(pts
			(xy 175.26 74.93) (xy 191.77 74.93)
		)
		(stroke
			(width 0)
			(type default)
		)
		(uuid "2feb9625-8893-43b9-96de-44ad945e2a22")
	)
	(wire
		(pts
			(xy 118.11 87.63) (xy 85.09 87.63)
		)
		(stroke
			(width 0)
			(type default)
		)
		(uuid "30afae86-9088-43d6-8ed1-b49578f4f2d7")
	)
	(wire
		(pts
			(xy 99.06 128.27) (xy 177.8 128.27)
		)
		(stroke
			(width 0)
			(type default)
		)
		(uuid "4245bbb9-1637-43da-8036-9068ff29fdba")
	)
	(wire
		(pts
			(xy 92.71 68.58) (xy 85.09 68.58)
		)
		(stroke
			(width 0)
			(type default)
		)
		(uuid "45312a8d-f7c2-41c5-a45c-9b9442b85a7a")
	)
	(wire
		(pts
			(xy 172.72 101.6) (xy 191.77 101.6)
		)
		(stroke
			(width 0)
			(type default)
		)
		(uuid "4686a059-4ca5-4075-88a3-0c8f33ebe954")
	)
	(wire
		(pts
			(xy 104.14 123.19) (xy 172.72 123.19)
		)
		(stroke
			(width 0)
			(type default)
		)
		(uuid "46a7253c-fc88-402e-9743-81c720129303")
	)
	(wire
		(pts
			(xy 177.8 128.27) (xy 177.8 107.95)
		)
		(stroke
			(width 0)
			(type default)
		)
		(uuid "46eb452b-c1af-4fba-b33b-dadef37d07fc")
	)
	(wire
		(pts
			(xy 101.6 125.73) (xy 101.6 105.41)
		)
		(stroke
			(width 0)
			(type default)
		)
		(uuid "53791436-3dd6-4ad1-b6a7-ceb3be2016e4")
	)
	(wire
		(pts
			(xy 85.09 80.01) (xy 118.11 80.01)
		)
		(stroke
			(width 0)
			(type default)
		)
		(uuid "5a734b2d-644f-42e9-b518-3dba0a9a7a3e")
	)
	(wire
		(pts
			(xy 104.14 101.6) (xy 104.14 123.19)
		)
		(stroke
			(width 0)
			(type default)
		)
		(uuid "5f67ec83-3a27-48ae-8ef7-1c9e396b6cfe")
	)
	(wire
		(pts
			(xy 170.18 99.06) (xy 191.77 99.06)
		)
		(stroke
			(width 0)
			(type default)
		)
		(uuid "67eb16a6-8b5c-4f34-a1b1-a5db2320919d")
	)
	(wire
		(pts
			(xy 191.77 105.41) (xy 175.26 105.41)
		)
		(stroke
			(width 0)
			(type default)
		)
		(uuid "6a8eec5e-9345-46b0-a244-29d5a6b79a86")
	)
	(wire
		(pts
			(xy 191.77 87.63) (xy 157.48 87.63)
		)
		(stroke
			(width 0)
			(type default)
		)
		(uuid "6b88cf9b-f72e-40ee-b652-cec42c3de7f9")
	)
	(wire
		(pts
			(xy 175.26 125.73) (xy 101.6 125.73)
		)
		(stroke
			(width 0)
			(type default)
		)
		(uuid "6d0250da-f3dc-4a4f-a4fa-019dcd813902")
	)
	(wire
		(pts
			(xy 99.06 107.95) (xy 99.06 128.27)
		)
		(stroke
			(width 0)
			(type default)
		)
		(uuid "7302f6e0-b346-4c68-a421-83a30b9f4497")
	)
	(wire
		(pts
			(xy 168.91 80.01) (xy 157.48 80.01)
		)
		(stroke
			(width 0)
			(type default)
		)
		(uuid "7d7a1102-74d4-4660-aedd-0461c29837e6")
	)
	(wire
		(pts
			(xy 101.6 55.88) (xy 175.26 55.88)
		)
		(stroke
			(width 0)
			(type default)
		)
		(uuid "7fa5b9cb-b7ff-4edc-b4af-861ca1bff8e9")
	)
	(wire
		(pts
			(xy 166.37 45.72) (xy 92.71 45.72)
		)
		(stroke
			(width 0)
			(type default)
		)
		(uuid "8be6ac67-eb94-4831-b9f4-7b262378c402")
	)
	(wire
		(pts
			(xy 85.09 66.04) (xy 91.44 66.04)
		)
		(stroke
			(width 0)
			(type default)
		)
		(uuid "94375f83-41ac-42b8-93f1-aae4eb01f671")
	)
	(wire
		(pts
			(xy 109.22 95.25) (xy 85.09 95.25)
		)
		(stroke
			(width 0)
			(type default)
		)
		(uuid "977bcc48-ab78-4c74-b613-22f94b829b5a")
	)
	(wire
		(pts
			(xy 170.18 120.65) (xy 170.18 99.06)
		)
		(stroke
			(width 0)
			(type default)
		)
		(uuid "97d5541f-077c-40f7-bdd6-0a9d50645a1f")
	)
	(wire
		(pts
			(xy 191.77 80.01) (xy 168.91 80.01)
		)
		(stroke
			(width 0)
			(type default)
		)
		(uuid "9ba4aedd-b71c-412f-9e4a-c902d10ae320")
	)
	(wire
		(pts
			(xy 175.26 55.88) (xy 175.26 74.93)
		)
		(stroke
			(width 0)
			(type default)
		)
		(uuid "9be43858-053e-4650-89b9-9703d5ac34c9")
	)
	(wire
		(pts
			(xy 99.06 72.39) (xy 99.06 53.34)
		)
		(stroke
			(width 0)
			(type default)
		)
		(uuid "a205cd5a-be06-4b6a-a8a9-15ff9c5cb82e")
	)
	(wire
		(pts
			(xy 101.6 74.93) (xy 101.6 55.88)
		)
		(stroke
			(width 0)
			(type default)
		)
		(uuid "a9911288-3b7e-415a-a002-0c6063213b33")
	)
	(wire
		(pts
			(xy 157.48 82.55) (xy 166.37 82.55)
		)
		(stroke
			(width 0)
			(type default)
		)
		(uuid "b491ea76-b517-4f30-a52f-73def6d1777d")
	)
	(wire
		(pts
			(xy 157.48 92.71) (xy 191.77 92.71)
		)
		(stroke
			(width 0)
			(type default)
		)
		(uuid "b789c28c-b0c1-4ab1-b75c-92349d7f93bc")
	)
	(wire
		(pts
			(xy 167.64 95.25) (xy 167.64 118.11)
		)
		(stroke
			(width 0)
			(type default)
		)
		(uuid "b9207a6a-e8e5-4efa-a2df-5a148ba40dd2")
	)
	(wire
		(pts
			(xy 106.68 99.06) (xy 106.68 120.65)
		)
		(stroke
			(width 0)
			(type default)
		)
		(uuid "b99a3f1c-fd0d-4209-a0cb-cbd69b81478b")
	)
	(wire
		(pts
			(xy 166.37 82.55) (xy 166.37 45.72)
		)
		(stroke
			(width 0)
			(type default)
		)
		(uuid "bfca1957-5180-4d52-854c-a13e92629b16")
	)
	(wire
		(pts
			(xy 85.09 99.06) (xy 106.68 99.06)
		)
		(stroke
			(width 0)
			(type default)
		)
		(uuid "c6628aea-0f59-4c4f-8ce9-e1a8add259d8")
	)
	(wire
		(pts
			(xy 106.68 120.65) (xy 170.18 120.65)
		)
		(stroke
			(width 0)
			(type default)
		)
		(uuid "cf91ded4-23d4-40ce-a972-6cf7b8ce0c5d")
	)
	(wire
		(pts
			(xy 177.8 72.39) (xy 191.77 72.39)
		)
		(stroke
			(width 0)
			(type default)
		)
		(uuid "d693a28a-866b-4f98-b0d7-38f552943d3a")
	)
	(wire
		(pts
			(xy 168.91 43.18) (xy 168.91 80.01)
		)
		(stroke
			(width 0)
			(type default)
		)
		(uuid "d9cf83fe-3c91-4185-aef3-eca95e94beb2")
	)
	(wire
		(pts
			(xy 177.8 107.95) (xy 191.77 107.95)
		)
		(stroke
			(width 0)
			(type default)
		)
		(uuid "dcbca49f-f8c6-43b7-ba20-a100c0ecc69e")
	)
	(wire
		(pts
			(xy 172.72 123.19) (xy 172.72 101.6)
		)
		(stroke
			(width 0)
			(type default)
		)
		(uuid "de30a6a2-f915-43a1-9562-943e4d7e073d")
	)
	(wire
		(pts
			(xy 91.44 43.18) (xy 168.91 43.18)
		)
		(stroke
			(width 0)
			(type default)
		)
		(uuid "deccf141-00b4-4294-8b2e-00c231464746")
	)
	(wire
		(pts
			(xy 85.09 101.6) (xy 104.14 101.6)
		)
		(stroke
			(width 0)
			(type default)
		)
		(uuid "e028b767-5561-4d94-8655-e697b91635e4")
	)
	(wire
		(pts
			(xy 191.77 95.25) (xy 167.64 95.25)
		)
		(stroke
			(width 0)
			(type default)
		)
		(uuid "e03a5ed6-f147-4990-bf8f-07d9122d1ed1")
	)
	(wire
		(pts
			(xy 167.64 118.11) (xy 109.22 118.11)
		)
		(stroke
			(width 0)
			(type default)
		)
		(uuid "e4ccf43d-550a-4657-b11d-bb091e3d7871")
	)
	(wire
		(pts
			(xy 85.09 74.93) (xy 101.6 74.93)
		)
		(stroke
			(width 0)
			(type default)
		)
		(uuid "e58507e3-cae5-4c15-9128-8705813f89e3")
	)
	(wire
		(pts
			(xy 99.06 53.34) (xy 177.8 53.34)
		)
		(stroke
			(width 0)
			(type default)
		)
		(uuid "f443ae1e-19ac-49c9-890d-59d9dc8db443")
	)
	(wire
		(pts
			(xy 92.71 45.72) (xy 92.71 68.58)
		)
		(stroke
			(width 0)
			(type default)
		)
		(uuid "fef8c90b-975a-4a68-b2d8-746f68b9cb49")
	)
	(symbol
		(lib_id "Mechanical:MountingHole_Pad")
		(at 35.56 176.53 0)
		(unit 1)
		(exclude_from_sim no)
		(in_bom yes)
		(on_board yes)
		(dnp no)
		(uuid "00000000-0000-0000-0000-00005f8e13f6")
		(property "Reference" "H102"
			(at 38.1 176.4538 0)
			(effects
				(font
					(size 1.27 1.27)
				)
				(justify left)
			)
		)
		(property "Value" "MountingHole_Pad"
			(at 38.1 177.5968 0)
			(effects
				(font
					(size 1.27 1.27)
				)
				(justify left)
				(hide yes)
			)
		)
		(property "Footprint" "MountingHole:MountingHole_3.2mm_M3_ISO14580_Pad"
			(at 35.56 176.53 0)
			(effects
				(font
					(size 1.27 1.27)
				)
				(hide yes)
			)
		)
		(property "Datasheet" "~"
			(at 35.56 176.53 0)
			(effects
				(font
					(size 1.27 1.27)
				)
				(hide yes)
			)
		)
		(property "Description" ""
			(at 35.56 176.53 0)
			(effects
				(font
					(size 1.27 1.27)
				)
				(hide yes)
			)
		)
		(property "MPN" "DNP"
			(at 35.56 176.53 0)
			(effects
				(font
					(size 1.27 1.27)
				)
				(hide yes)
			)
		)
		(pin "1"
			(uuid "33ddab4a-36a6-4011-a292-aae3fd3ce3da")
		)
		(instances
			(project "ferret"
				(path "/f5e4a79b-09c8-4b73-8999-dee726215526"
					(reference "H102")
					(unit 1)
				)
			)
		)
	)
	(symbol
		(lib_id "power:GND")
		(at 35.56 179.07 0)
		(unit 1)
		(exclude_from_sim no)
		(in_bom yes)
		(on_board yes)
		(dnp no)
		(uuid "00000000-0000-0000-0000-00005f8e1b2f")
		(property "Reference" "#PWR0102"
			(at 35.56 185.42 0)
			(effects
				(font
					(size 1.27 1.27)
				)
				(hide yes)
			)
		)
		(property "Value" "GND"
			(at 35.687 183.4642 0)
			(effects
				(font
					(size 1.27 1.27)
				)
			)
		)
		(property "Footprint" ""
			(at 35.56 179.07 0)
			(effects
				(font
					(size 1.27 1.27)
				)
				(hide yes)
			)
		)
		(property "Datasheet" ""
			(at 35.56 179.07 0)
			(effects
				(font
					(size 1.27 1.27)
				)
				(hide yes)
			)
		)
		(property "Description" ""
			(at 35.56 179.07 0)
			(effects
				(font
					(size 1.27 1.27)
				)
				(hide yes)
			)
		)
		(pin "1"
			(uuid "dfce5adc-c732-4f02-ad31-b48adef9c99e")
		)
		(instances
			(project "ferret"
				(path "/f5e4a79b-09c8-4b73-8999-dee726215526"
					(reference "#PWR0102")
					(unit 1)
				)
			)
		)
	)
	(symbol
		(lib_id "Mechanical:MountingHole_Pad")
		(at 24.13 176.53 0)
		(unit 1)
		(exclude_from_sim no)
		(in_bom yes)
		(on_board yes)
		(dnp no)
		(uuid "00000000-0000-0000-0000-00005f8e4bf3")
		(property "Reference" "H101"
			(at 26.67 176.4538 0)
			(effects
				(font
					(size 1.27 1.27)
				)
				(justify left)
			)
		)
		(property "Value" "MountingHole_Pad"
			(at 26.67 177.5968 0)
			(effects
				(font
					(size 1.27 1.27)
				)
				(justify left)
				(hide yes)
			)
		)
		(property "Footprint" "MountingHole:MountingHole_3.2mm_M3_ISO14580_Pad"
			(at 24.13 176.53 0)
			(effects
				(font
					(size 1.27 1.27)
				)
				(hide yes)
			)
		)
		(property "Datasheet" "~"
			(at 24.13 176.53 0)
			(effects
				(font
					(size 1.27 1.27)
				)
				(hide yes)
			)
		)
		(property "Description" ""
			(at 24.13 176.53 0)
			(effects
				(font
					(size 1.27 1.27)
				)
				(hide yes)
			)
		)
		(property "MPN" "DNP"
			(at 24.13 176.53 0)
			(effects
				(font
					(size 1.27 1.27)
				)
				(hide yes)
			)
		)
		(pin "1"
			(uuid "b1f85aa3-31a5-4c5b-8feb-c6eca3c1da5a")
		)
		(instances
			(project "ferret"
				(path "/f5e4a79b-09c8-4b73-8999-dee726215526"
					(reference "H101")
					(unit 1)
				)
			)
		)
	)
	(symbol
		(lib_id "power:GND")
		(at 24.13 179.07 0)
		(unit 1)
		(exclude_from_sim no)
		(in_bom yes)
		(on_board yes)
		(dnp no)
		(uuid "00000000-0000-0000-0000-00005f8e4bf9")
		(property "Reference" "#PWR0101"
			(at 24.13 185.42 0)
			(effects
				(font
					(size 1.27 1.27)
				)
				(hide yes)
			)
		)
		(property "Value" "GND"
			(at 24.257 183.4642 0)
			(effects
				(font
					(size 1.27 1.27)
				)
			)
		)
		(property "Footprint" ""
			(at 24.13 179.07 0)
			(effects
				(font
					(size 1.27 1.27)
				)
				(hide yes)
			)
		)
		(property "Datasheet" ""
			(at 24.13 179.07 0)
			(effects
				(font
					(size 1.27 1.27)
				)
				(hide yes)
			)
		)
		(property "Description" ""
			(at 24.13 179.07 0)
			(effects
				(font
					(size 1.27 1.27)
				)
				(hide yes)
			)
		)
		(pin "1"
			(uuid "e3177e66-a057-47e1-85ba-517df3b19a57")
		)
		(instances
			(project "ferret"
				(path "/f5e4a79b-09c8-4b73-8999-dee726215526"
					(reference "#PWR0101")
					(unit 1)
				)
			)
		)
	)
	(sheet
		(at 191.77 63.5)
		(size 40.64 48.26)
		(fields_autoplaced yes)
		(stroke
			(width 0)
			(type solid)
		)
		(fill
			(color 0 0 0 0.0000)
		)
		(uuid "00000000-0000-0000-0000-00005ef44cb5")
		(property "Sheetname" "Control"
			(at 191.77 62.7884 0)
			(effects
				(font
					(size 1.27 1.27)
				)
				(justify left bottom)
			)
		)
		(property "Sheetfile" "control.kicad_sch"
			(at 191.77 112.3446 0)
			(effects
				(font
					(size 1.27 1.27)
				)
				(justify left top)
			)
		)
		(pin "~{INT_PMC}" input
			(at 191.77 95.25 180)
			(effects
				(font
					(size 1.27 1.27)
				)
				(justify left)
			)
			(uuid "b8990d68-bd57-40bd-98bf-cbee5eeadefa")
		)
		(pin "EN_SNK" input
			(at 191.77 101.6 180)
			(effects
				(font
					(size 1.27 1.27)
				)
				(justify left)
			)
			(uuid "b7050173-3e57-4c83-9daa-661ff6564254")
		)
		(pin "~{CE}" output
			(at 191.77 87.63 180)
			(effects
				(font
					(size 1.27 1.27)
				)
				(justify left)
			)
			(uuid "a554288a-dc77-416f-a106-5e6047eb27e0")
		)
		(pin "SCL" output
			(at 191.77 80.01 180)
			(effects
				(font
					(size 1.27 1.27)
				)
				(justify left)
			)
			(uuid "41260889-18ef-41df-96bc-5db59f56aa51")
		)
		(pin "SDA" bidirectional
			(at 191.77 82.55 180)
			(effects
				(font
					(size 1.27 1.27)
				)
				(justify left)
			)
			(uuid "60e74db6-4871-4151-b07c-3923b8a1a9df")
		)
		(pin "~{INT_CHG}" input
			(at 191.77 92.71 180)
			(effects
				(font
					(size 1.27 1.27)
				)
				(justify left)
			)
			(uuid "51c7f8e2-e0dc-4bf6-9d39-b725db296b64")
		)
		(pin "D-" bidirectional
			(at 191.77 74.93 180)
			(effects
				(font
					(size 1.27 1.27)
				)
				(justify left)
			)
			(uuid "28aa7a0e-dcf6-4599-80e4-b9982f80a7ba")
		)
		(pin "D+" bidirectional
			(at 191.77 72.39 180)
			(effects
				(font
					(size 1.27 1.27)
				)
				(justify left)
			)
			(uuid "ee832816-196f-4ceb-9594-205541f5153f")
		)
		(pin "SBU1" bidirectional
			(at 191.77 105.41 180)
			(effects
				(font
					(size 1.27 1.27)
				)
				(justify left)
			)
			(uuid "bab82161-a207-4c0e-9782-d793f3cb3736")
		)
		(pin "SBU2" bidirectional
			(at 191.77 107.95 180)
			(effects
				(font
					(size 1.27 1.27)
				)
				(justify left)
			)
			(uuid "61e2b4de-0f30-46ab-9a19-da0b3f223f98")
		)
		(pin "USB_SEL" output
			(at 191.77 99.06 180)
			(effects
				(font
					(size 1.27 1.27)
				)
				(justify left)
			)
			(uuid "dade7995-bf00-4bdf-adad-e26e38abfeaf")
		)
		(instances
			(project "ferret"
				(path "/f5e4a79b-09c8-4b73-8999-dee726215526"
					(page "4")
				)
			)
		)
	)
	(sheet
		(at 43.18 63.5)
		(size 41.91 48.26)
		(fields_autoplaced yes)
		(stroke
			(width 0)
			(type solid)
		)
		(fill
			(color 0 0 0 0.0000)
		)
		(uuid "00000000-0000-0000-0000-00005efea158")
		(property "Sheetname" "Input Side"
			(at 43.18 62.7884 0)
			(effects
				(font
					(size 1.27 1.27)
				)
				(justify left bottom)
			)
		)
		(property "Sheetfile" "input.kicad_sch"
			(at 43.18 112.3446 0)
			(effects
				(font
					(size 1.27 1.27)
				)
				(justify left top)
			)
		)
		(pin "D_PD+" bidirectional
			(at 85.09 80.01 0)
			(effects
				(font
					(size 1.27 1.27)
				)
				(justify right)
			)
			(uuid "efbc6671-67a1-47ea-a6e1-e8d092513f74")
		)
		(pin "D_PD-" bidirectional
			(at 85.09 82.55 0)
			(effects
				(font
					(size 1.27 1.27)
				)
				(justify right)
			)
			(uuid "f0bfe7d3-552d-4ddc-aaa6-c6674fa5e481")
		)
		(pin "USB_SEL" input
			(at 85.09 99.06 0)
			(effects
				(font
					(size 1.27 1.27)
				)
				(justify right)
			)
			(uuid "6d2ad9a1-ee1c-4e41-95be-260731684ba3")
		)
		(pin "D_CHG+" bidirectional
			(at 85.09 72.39 0)
			(effects
				(font
					(size 1.27 1.27)
				)
				(justify right)
			)
			(uuid "ddb3a828-a737-4ae3-89bc-c5790ee50ece")
		)
		(pin "D_CHG-" bidirectional
			(at 85.09 74.93 0)
			(effects
				(font
					(size 1.27 1.27)
				)
				(justify right)
			)
			(uuid "04acae2f-630d-42e9-a585-276323fd452c")
		)
		(pin "SBU2" bidirectional
			(at 85.09 107.95 0)
			(effects
				(font
					(size 1.27 1.27)
				)
				(justify right)
			)
			(uuid "b84407f7-cdb7-4872-951d-dbd7f75fd306")
		)
		(pin "SBU1" bidirectional
			(at 85.09 105.41 0)
			(effects
				(font
					(size 1.27 1.27)
				)
				(justify right)
			)
			(uuid "861a3ab2-b0e5-4ecb-9995-7212a3ae9345")
		)
		(pin "~{INT_PMC}" output
			(at 85.09 95.25 0)
			(effects
				(font
					(size 1.27 1.27)
				)
				(justify right)
			)
			(uuid "531ad8ea-616b-4711-845f-9b79d6009413")
		)
		(pin "EN_SINK" input
			(at 85.09 101.6 0)
			(effects
				(font
					(size 1.27 1.27)
				)
				(justify right)
			)
			(uuid "1d87cb2c-1409-4694-86aa-6880ae30caaf")
		)
		(pin "ACDRV1" input
			(at 85.09 87.63 0)
			(effects
				(font
					(size 1.27 1.27)
				)
				(justify right)
			)
			(uuid "8d55d7a6-61f1-4c5b-ac20-9f670c8c2807")
		)
		(pin "VAC1" output
			(at 85.09 85.09 0)
			(effects
				(font
					(size 1.27 1.27)
				)
				(justify right)
			)
			(uuid "45e1734d-3c40-432c-aae5-214dc796740a")
		)
		(pin "SCL" input
			(at 85.09 66.04 0)
			(effects
				(font
					(size 1.27 1.27)
				)
				(justify right)
			)
			(uuid "8c276d2a-d40c-45fd-be22-428c44ddb138")
		)
		(pin "SDA" bidirectional
			(at 85.09 68.58 0)
			(effects
				(font
					(size 1.27 1.27)
				)
				(justify right)
			)
			(uuid "da45f120-7e9d-4601-b77f-775fe53179a7")
		)
		(instances
			(project "ferret"
				(path "/f5e4a79b-09c8-4b73-8999-dee726215526"
					(page "2")
				)
			)
		)
	)
	(sheet
		(at 118.11 63.5)
		(size 39.37 48.26)
		(fields_autoplaced yes)
		(stroke
			(width 0)
			(type solid)
		)
		(fill
			(color 0 0 0 0.0000)
		)
		(uuid "00000000-0000-0000-0000-00005f165a7a")
		(property "Sheetname" "Power"
			(at 118.11 62.7884 0)
			(effects
				(font
					(size 1.27 1.27)
				)
				(justify left bottom)
			)
		)
		(property "Sheetfile" "power.kicad_sch"
			(at 118.11 112.3446 0)
			(effects
				(font
					(size 1.27 1.27)
				)
				(justify left top)
			)
		)
		(pin "D+" bidirectional
			(at 118.11 80.01 180)
			(effects
				(font
					(size 1.27 1.27)
				)
				(justify left)
			)
			(uuid "90edeeef-fe9c-490a-a3ea-389478ae2cf9")
		)
		(pin "D-" bidirectional
			(at 118.11 82.55 180)
			(effects
				(font
					(size 1.27 1.27)
				)
				(justify left)
			)
			(uuid "2f839e6a-4768-4d67-990f-49c6ead53f1d")
		)
		(pin "~{INT_CHG}" output
			(at 157.48 92.71 0)
			(effects
				(font
					(size 1.27 1.27)
				)
				(justify right)
			)
			(uuid "7f00e3d5-122d-45eb-8ddd-4b3a6ca4ce67")
		)
		(pin "SCL" input
			(at 157.48 80.01 0)
			(effects
				(font
					(size 1.27 1.27)
				)
				(justify right)
			)
			(uuid "563e6e34-6f85-42f4-a076-b0e5bd3bf114")
		)
		(pin "SDA" bidirectional
			(at 157.48 82.55 0)
			(effects
				(font
					(size 1.27 1.27)
				)
				(justify right)
			)
			(uuid "74839784-d1b9-4cf3-9fd5-3aae96b78434")
		)
		(pin "~{CE}" input
			(at 157.48 87.63 0)
			(effects
				(font
					(size 1.27 1.27)
				)
				(justify right)
			)
			(uuid "79b40387-aa3d-40d4-a327-8fe6d32c033d")
		)
		(pin "VAC1" input
			(at 118.11 85.09 180)
			(effects
				(font
					(size 1.27 1.27)
				)
				(justify left)
			)
			(uuid "b1e545c4-69cd-4747-8964-9cc835698076")
		)
		(pin "ACDRV1" output
			(at 118.11 87.63 180)
			(effects
				(font
					(size 1.27 1.27)
				)
				(justify left)
			)
			(uuid "21685401-7f1a-4837-9dd7-b42ca9225225")
		)
		(instances
			(project "ferret"
				(path "/f5e4a79b-09c8-4b73-8999-dee726215526"
					(page "3")
				)
			)
		)
	)
	(sheet_instances
		(path "/"
			(page "1")
		)
	)
)
